<?xml version="1.0" encoding="utf-8"?>
<!-- Generator: Adobe Illustrator 16.0.3, SVG Export Plug-In . SVG Version: 6.00 Build 0)  -->
<!DOCTYPE svg PUBLIC "-//W3C//DTD SVG 1.1//EN" "http://www.w3.org/Graphics/SVG/1.1/DTD/svg11.dtd">
<svg version="1.1" id="Capa_1" xmlns="http://www.w3.org/2000/svg" xmlns:xlink="http://www.w3.org/1999/xlink" x="0px" y="0px"
	 width="310px" height="90px" viewBox="0 0 310 90" enable-background="new 0 0 310 90" xml:space="preserve">
<path fill="#132B34" d="M257.372,1.018c-24.29,0-43.982,19.691-43.982,43.982c0,11.956,4.776,22.8,12.518,30.728
	c-6.184-7.434-9.965-17.369-9.965-28.285c0-1.256,0.054-2.5,0.149-3.727c0.911,19.193,16.654,34.475,35.945,34.475
	c19.875,0,35.984-16.222,35.984-36.231c0-0.525-0.014-1.047-0.038-1.568l-7.414,1.738l6.548-15.355l11.499,11.125l-8.112,1.902
	c0.415,2.478,0.636,5.031,0.636,7.641c0,21.736-14.986,39.586-34.118,41.535c0.115,0,0.233,0.004,0.351,0.004
	c24.29,0,43.98-19.69,43.98-43.981C301.353,20.709,281.662,1.018,257.372,1.018z M251.665,37.998l-0.448,9.452
	c-0.135,2.205-0.347,3.849-0.632,4.937c-0.24,0.904-0.577,1.744-1.012,2.516c-0.42,0.692-0.922,1.308-1.509,1.854
	c-0.749,0.706-1.628,1.313-2.632,1.824c-1.126,0.577-2.319,0.996-3.58,1.259c-1.741,0.361-3.532,0.542-5.378,0.542
	c-1.891,0-3.662-0.188-5.312-0.566c-1.411-0.33-2.703-0.84-3.883-1.531c-1.179-0.69-2.112-1.464-2.802-2.318
	c-0.556-0.692-0.999-1.557-1.327-2.593c-0.375-1.151-0.563-2.433-0.563-3.85c0-0.494,0.016-1.13,0.046-1.911
	c0.028-0.781,0.082-1.79,0.158-3.024l0.204-3.479c0.076-1.086,0.16-2.681,0.25-4.787l0.229-5.355
	c0.058-1.464,0.112-3.085,0.157-4.862c1.737,0.034,2.915,0.05,3.527,0.05c0.765,0,1.903-0.016,3.415-0.05l-1.061,19.916
	c-0.015,0.229-0.023,0.479-0.023,0.74c0,2.222,0.289,3.893,0.867,5.01c0.578,1.119,1.426,1.933,2.542,2.444
	c1.119,0.509,2.399,0.764,3.841,0.764c0.914,0,1.785-0.115,2.61-0.345c0.676-0.198,1.29-0.469,1.846-0.813
	c0.449-0.296,0.848-0.642,1.193-1.038c0.406-0.477,0.743-1.028,1.012-1.653c0.285-0.609,0.497-1.298,0.634-2.073
	c0.192-1.168,0.374-3.199,0.541-6.095l0.478-8.588c0.105-2.5,0.19-5.256,0.25-8.268c1.692,0.034,2.953,0.05,3.775,0.05l3.281-0.05
	L251.665,37.998z M279.333,40.701c-0.968,1.736-2.307,3.031-4.017,3.886c-1.709,0.855-3.607,1.284-5.693,1.284
	c-1.021,0-2.107-0.114-3.264-0.346c-0.329-1.711-0.705-3.315-1.124-4.812c0.926,0.213,1.848,0.321,2.76,0.321
	c1.241,0,2.321-0.206,3.233-0.618c0.913-0.411,1.64-1.082,2.178-2.011s0.809-1.979,0.809-3.146c0-0.691-0.113-1.326-0.338-1.901
	c-0.226-0.576-0.551-1.037-0.976-1.382c-0.427-0.345-0.899-0.58-1.414-0.703c-0.52-0.124-1.255-0.185-2.212-0.185
	c-0.838,0-1.685,0.017-2.538,0.049c-0.853,0.034-1.608,0.05-2.268,0.05c-0.178,3.225-0.313,6.31-0.403,9.255l-0.268,9.427
	c-0.089,3.34-0.135,5.791-0.135,7.353c0,0.594,0.008,1.45,0.023,2.567l-3.267-0.049c-0.42,0-1.546,0.016-3.377,0.049l0.405-5.85
	l0.562-12.954l0.271-9.404c0.016-0.854,0.023-1.719,0.023-2.591c0-0.642-0.008-1.604-0.023-2.888c1.919,0.034,3.48,0.05,4.681,0.05
	c0.96,0,2.295-0.025,4.006-0.075c1.709-0.049,3.067-0.074,4.071-0.074c2.071,0,3.594,0.165,4.569,0.493
	c1.036,0.362,1.943,0.93,2.724,1.703c0.78,0.775,1.372,1.704,1.778,2.79c0.449,1.217,0.674,2.524,0.674,3.924
	C280.785,37.036,280.302,38.966,279.333,40.701z"/>
<g>
	<path fill="#3C3C3C" d="M7.758,60.258l0.448-6.336l0.583-12.375l0.247-8.762c0.015-0.94,0.022-1.881,0.022-2.821
		c0-0.709-0.008-1.873-0.022-3.49c1.987,0.05,3.582,0.074,4.786,0.074c1.159,0,2.747-0.037,4.764-0.111
		c2.017-0.074,3.726-0.111,5.125-0.111c2.017,0,3.511,0.141,4.481,0.421c0.97,0.281,1.847,0.722,2.63,1.324
		c0.783,0.603,1.43,1.308,1.942,2.116c0.512,0.809,0.895,1.729,1.151,2.76c0.256,1.031,0.384,2.083,0.384,3.155
		c0,2.211-0.489,4.232-1.467,6.064c-0.979,1.832-2.355,3.201-4.13,4.108s-3.769,1.361-5.981,1.361c-0.813,0-1.753-0.1-2.821-0.297
		c-0.121-0.759-0.347-1.89-0.677-3.391c-0.331-1.501-0.602-2.615-0.813-3.341c0.662,0.149,1.354,0.223,2.076,0.223
		c1.52,0,2.652-0.4,3.397-1.201c0.745-0.8,1.117-1.777,1.117-2.933c0-0.561-0.083-1.06-0.249-1.498
		c-0.166-0.437-0.429-0.796-0.79-1.077c-0.361-0.28-0.76-0.461-1.196-0.544c-0.437-0.082-0.933-0.124-1.49-0.124
		c-0.542,0-1.106,0.017-1.693,0.049l-1.896,0.148c-0.194,3.185-0.342,6.724-0.447,10.618c-0.194,7.095-0.291,11.352-0.291,12.771
		v3.218l-4.495-0.05C11.824,60.208,10.257,60.225,7.758,60.258z"/>
	<path fill="#3C3C3C" d="M37.121,60.258c0.287-2.904,0.513-5.52,0.679-7.846c0.166-2.326,0.309-5.024,0.43-8.093
		c0.121-3.069,0.211-6.307,0.271-9.714c0.061-3.407,0.091-6.117,0.091-8.13c1.88,0.05,3.4,0.074,4.558,0.074
		c1.203,0,2.67-0.037,4.4-0.111s3.415-0.111,5.055-0.111c1.926,0,3.641,0.083,5.146,0.248c1.128,0.116,2.154,0.355,3.08,0.718
		c0.926,0.363,1.704,0.804,2.336,1.324c0.632,0.52,1.158,1.101,1.58,1.745c0.421,0.644,0.748,1.398,0.981,2.265
		s0.35,1.794,0.35,2.784c0,1.105-0.128,2.141-0.384,3.106c-0.256,0.965-0.659,1.873-1.208,2.723
		c-0.549,0.85-1.241,1.584-2.076,2.203c-0.835,0.619-2.005,1.25-3.51,1.894l1.174,3.143c0.331,0.875,0.684,1.767,1.061,2.674
		l3.024,7.251c0.135,0.313,0.376,0.933,0.722,1.856c-2.481-0.033-4.15-0.05-5.007-0.05c-1.083,0-2.857,0.017-5.323,0.05
		c-0.241-0.857-0.678-2.45-1.311-4.776c-0.256-0.974-0.475-1.725-0.655-2.253c-0.362-1.171-0.896-2.813-1.604-4.925L48.654,41.3
		c0.813,0.165,1.61,0.248,2.392,0.248c1.098,0,2.095-0.182,2.99-0.545c0.895-0.362,1.572-0.924,2.031-1.683s0.688-1.56,0.688-2.401
		c0-0.709-0.173-1.332-0.519-1.869c-0.346-0.536-0.892-0.936-1.636-1.2c-0.745-0.264-1.893-0.396-3.442-0.396
		c-0.527,0-1.072,0.012-1.636,0.037c-0.564,0.025-1.223,0.045-1.975,0.062c-0.193,3.382-0.363,7.507-0.512,12.375
		s-0.245,9.645-0.29,14.33c-2.516-0.033-4.15-0.05-4.903-0.05C40.969,60.208,39.395,60.225,37.121,60.258z"/>
	<path fill="#3C3C3C" d="M88.195,25.831c2.407,0,4.724,0.355,6.951,1.064c2.227,0.709,4.175,1.844,5.846,3.403
		c1.67,1.56,2.918,3.354,3.746,5.383c0.828,2.029,1.242,4.364,1.242,7.004c0,2.772-0.456,5.317-1.366,7.636
		c-0.911,2.318-2.223,4.285-3.938,5.902c-1.715,1.617-3.762,2.801-6.139,3.552c-2.377,0.75-4.853,1.126-7.425,1.126
		c-2.543,0-4.98-0.367-7.313-1.102c-2.333-0.733-4.36-1.922-6.083-3.563c-1.723-1.642-2.945-3.469-3.667-5.482
		c-0.722-2.013-1.083-4.248-1.083-6.707c0-3.613,0.764-6.785,2.291-9.516c1.527-2.73,3.792-4.863,6.793-6.398
		C81.052,26.599,84.434,25.831,88.195,25.831z M87.789,33.281c-1.73,0-3.295,0.466-4.695,1.398
		c-1.399,0.932-2.475,2.228-3.227,3.886c-0.753,1.658-1.128,3.436-1.128,5.333c0,1.749,0.342,3.35,1.027,4.802
		c0.685,1.452,1.727,2.586,3.125,3.402c1.399,0.817,2.881,1.226,4.446,1.226c1.67,0,3.201-0.458,4.593-1.374
		c1.392-0.915,2.453-2.202,3.183-3.86c0.729-1.658,1.094-3.395,1.094-5.21c0-1.766-0.338-3.395-1.016-4.888
		c-0.677-1.493-1.67-2.652-2.979-3.478C90.903,33.693,89.429,33.281,87.789,33.281z"/>
	<path fill="#3C3C3C" d="M109.681,60.258c0.315-3.35,0.534-6.039,0.654-8.068c0.18-3.003,0.353-7.132,0.519-12.387
		c0.165-5.255,0.248-8.79,0.248-10.605v-2.723c4.529,0.033,8.742,0.05,12.64,0.05c3.927,0,7.704-0.017,11.331-0.05
		c-0.241,3.795-0.361,6.278-0.361,7.45l-1.963-0.074l-1.58-0.025l-1.58-0.024h-4.446c-0.512,0-2.009,0.017-4.491,0.049l-0.203,5.767
		l3.272,0.074h3.656c1.053,0,2.663-0.025,4.83-0.074c-0.166,3.119-0.248,5.56-0.248,7.326c-2.418-0.082-4.214-0.124-5.385-0.124
		c-1.983,0-4.146,0.042-6.489,0.124l-0.234,8.91l-0.023,3.316v1.089l-4.857-0.05C114.591,60.208,112.829,60.225,109.681,60.258z"/>
	<path fill="#3C3C3C" d="M138.051,60.258c0.867-13.249,1.301-23.446,1.301-30.59l-0.022-3.193c2.635,0.033,4.397,0.05,5.286,0.05
		c0.406,0,2.025-0.017,4.856-0.05c-0.272,3.712-0.491,7.227-0.657,10.543c-0.211,4.62-0.363,8.939-0.454,12.957
		c-0.09,4.018-0.136,7.445-0.136,10.283l-4.625-0.05C142.698,60.208,140.848,60.225,138.051,60.258z"/>
	<path fill="#3C3C3C" d="M153.533,60.258c0.377-3.894,0.649-7.07,0.816-9.528c0.317-4.488,0.555-8.947,0.714-13.377
		c0.158-4.43,0.238-8.056,0.238-10.877c2.044,0.033,3.855,0.05,5.435,0.05c1.067,0,2.602-0.017,4.601-0.05l-0.544,8.959
		l-0.68,14.008l-0.091,3.44c2.589,0.049,4.274,0.074,5.058,0.074c3.959,0,6.954-0.058,8.986-0.174l-0.497,7.475
		c-3.957-0.033-7.727-0.05-11.307-0.05C161.417,60.208,157.174,60.225,153.533,60.258z"/>
	<path fill="#3C3C3C" d="M180.819,60.258c0.377-4.257,0.652-7.821,0.826-10.691c0.173-2.871,0.347-6.687,0.521-11.447
		c0.173-4.76,0.26-7.916,0.26-9.466l-0.022-2.178c3.55,0.033,7.845,0.05,12.885,0.05c4.648,0,8.748-0.017,12.299-0.05l-0.046,0.814
		c-0.015,0.197-0.053,0.913-0.112,2.146l-0.136,2.689c-0.03,0.576-0.045,1.16-0.045,1.751c-2.904-0.132-5.342-0.198-7.313-0.198
		c-2.167,0-3.63,0.004-4.39,0.012c-0.76,0.009-1.945,0.046-3.555,0.112l-0.274,5.692c1.776,0.049,3.846,0.074,6.208,0.074
		c0.843,0,3.086-0.058,6.728-0.173c-0.15,2.112-0.293,4.628-0.429,7.548c-2.602-0.032-4.602-0.05-5.999-0.05
		c-2.076,0-4.399,0.059-6.971,0.174l-0.269,6.014h2.594c0.767,0,2.354-0.024,4.76-0.074l4.669-0.123
		c0.691-0.017,1.849-0.083,3.473-0.198c-0.181,2.442-0.331,4.967-0.451,7.573c-3.672-0.033-7.696-0.05-12.074-0.05l-9.931,0.025
		L180.819,60.258z"/>
</g>
</svg>
